{
  "type": "service_account",
  "project_id": "teamjaune-projm2",
  "private_key_id": "d7d1cd48db7c5051102997a7879d3b2a08fc9385",
  "private_key": "-----BEGIN PRIVATE KEY-----\nMIIEvgIBADANBgkqhkiG9w0BAQEFAASCBKgwggSkAgEAAoIBAQDTO1yfryA7gZjE\nD9tSC5mOxeK4YD2mTIgJJgxMZTiGx9LSfr6kVY3Fako5YOwKP74KW88oBf/dHzNS\nosjOC0E7ou45y3InMZLyDs7J5wfSX3i2DFOkB3rhXo8izYK7sFQiKZm+kMepUfrd\nf0ChFfLRJjKafu2h+Xb8uhGtAgfF5ry9ElcQXSVwDkARPLu4weKotNbXqDZcuq8+\nYamajqgFvsNxbNwmdSKD7zgE/e8U8aYF6lnm5nYreqBWNrf6kksbuki7McbE6eY5\n3VVZyeJAHXkp4Vin8Td/QF147HNH2DcoL6yxnPEQudmUsDRqxIMjFc7PlSZYX4vr\nSTLmhr5/AgMBAAECggEAARe2g/Dw9r3V33XBiawbsDxfztpYl0qgDYQP3jlL0I6q\nDYKwU8NJh3LkTWWt8uOfhQgyix900lz98/h5l29BeCCAoPXnckJ0YyImea7jQHhT\n9IUdzaRoQ1As514uxe/Ej6Stcennzn1pEco9uFeXuPM8ocX0Trkun2ILA10WUzS6\n7tD62ZGySxQf+Yd2VjwEMX4pRoXILyUYlgQCnNTIMGngnxU05/avR9c4DozDupHr\nh1GuFosoN+W8KPfLQN0enD9b6H/iHmZMfFpbYuvv2C3C5YmHg/APsMeNL1sZ5SDv\noS3mCxNMstiubOeQ+L9K6iI603dH8s6UuoBj/Cl5iQKBgQDyPPsKukHBhfEO4haF\nGzh2crwxB/fhYZsz20D+rVDi+a7iKrLBWSGDbxxyzXb4en4Q03x9jRlt4dYvDHA8\nwcoGaUB40YDHVpzqcpbNf4vzbcUVxY5rcO6pYH7aeoKOMDzySrRff2GJPG+19d0F\nqqTqNK4Ac4XAB5sL0df0iK29/QKBgQDfO2/nfDUrcnuMEJzgADJBiYbLDZGXfY3w\nWl7fJxc9ubL39g3voRTCLV3MMBxGZdr3MAGQqmsKgxHlzrf3U6++wZoqo55oL06U\nlY22dlD9FRjlzzw7ZiZUF8bTHGdwn6nMtQ8lMTfM6SWvo1y3MrVf+N5lnzBQWW4B\n7MxANvy5KwKBgQDNEMKUukigQ3tmVg8qb3jFDSwzdcNqkO6KX7oN3zryatyZqfvZ\nolK0qYMzzKxCfa/rHp3sy14Tn3NqMOVzCbq04rUpknGqTrBX6Nmw7aDUWsDVRYDj\ng58G1CGPYtbS+BMgKg24KmWvf/Ix4AlTmroxapdC2okHn2iqAOMIqAwtIQKBgBQQ\n4K87MABWyxo9CAzul5XiidZIwvSOGasoRGzks6cdwSOe34PRw+7sawkGrhP55ePg\nUdOyLesE+x/gJBM8V4jbGEOK75tH3VVn2BQ1sHP/aHyH0083kGxwsrOZUwcBox6+\ni7z5Hp3xuyx9j8D78ufMlBkoZQxj7YqIwZdoGfF/AoGBAOSAiVFRyYalBTEseUho\n/Oj3FjRr1/juW4dMdb5F3WqcmdxsqVXTjami0+m5fiP0W1J4bM4tyxecPAMlKPLs\nKpNnS2zBGIgqW6iYpjdIBteMlR328FE459nzn/83+YDP4Bz6krLY0t7q468h0CsI\nG265tSlz5jPFFS659LPMaTD+\n-----END PRIVATE KEY-----\n",
  "client_email": "firebase-adminsdk-982wd@teamjaune-projm2.iam.gserviceaccount.com",
  "client_id": "100362006851103952082",
  "auth_uri": "https://accounts.google.com/o/oauth2/auth",
  "token_uri": "https://oauth2.googleapis.com/token",
  "auth_provider_x509_cert_url": "https://www.googleapis.com/oauth2/v1/certs",
  "client_x509_cert_url": "https://www.googleapis.com/robot/v1/metadata/x509/firebase-adminsdk-982wd%40teamjaune-projm2.iam.gserviceaccount.com"
}
